…
sampled_data_ngrams <- sampled_data %>%
  unnest_tokens(tokens, sentence, token="words", drop=FALSE, to_lower=TRUE)
```

Stemming sentence tokens (ngrams):

``` r
token_stems <- wordStem(sampled_data_ngrams$tokens, language = "spanish")
stemmed_ngrams <- sampled_data_ngrams %>% 
  mutate(Stems = token_stems)
stemmed_ngrams
```

    ## # A tibble: 66,078 × 10
    ##    path   language speaker_id   PRR length sentence keywords non_keywords tokens
    ##    <chr>  <chr>         <dbl> <dbl>  <dbl> <chr>    <lgl>    <lgl>        <chr> 
    ##  1 10-00… es              370   100   6.06 con una… TRUE     FALSE        con   
    ##  2 10-00… es              370   100   6.06 con una… TRUE     FALSE        una   
    ##  3 10-00… es              370   100   6.06 con una… TRUE     FALSE        manip…
    ##  4 10-00… es              370   100   6.06 con una… TRUE     FALSE        absol…
    ##  5 10-00… es              370   100   6.06 con una… TRUE     FALSE        del   
    ##  6 10-00… es              370   100   6.06 con una… TRUE     FALSE        lengu…
    ##  7 10-00… es              370   100   6.06 con una… TRUE     FALSE        y     
    ##  8 10-00… es              370   100   6.06 con una… TRUE     FALSE        confi…
    ##  9 10-00… es              370   100   6.06 con una… TRUE     FALSE        una   
    ## 10 10-00… es              370   100   6.06 con una… TRUE     FALSE        frase 
    ## # ℹ 66,068 more rows
    ## # ℹ 1 more variable: Stems <chr>
…
    ## [1] 2422

2842 stems after inner-joining with SEL (stems that did not have matches
in the SEL were dropped)

Grouping by sentence/utterance:

``` r
merged_data2 <- merged_data %>% 
  arrange(speaker_id, group_by=TRUE)
merged_data2
```

    ## # A tibble: 2,422 × 13
    ##    path   language speaker_id   PRR length sentence keywords non_keywords tokens
    ##    <chr>  <chr>         <dbl> <dbl>  <dbl> <chr>    <lgl>    <lgl>        <chr> 
    ##  1 10-04… es                0 100     9.57 porque … TRUE     FALSE        conse…
    ##  2 10-04… es                0 100     9.57 porque … TRUE     FALSE        graci…
    ##  3 10-07… es                0  99.2   9.21 y del p… TRUE     FALSE        recog…
    ##  4 10-07… es                0  99.2   9.21 y del p… TRUE     FALSE        lograr
    ##  5 10-08… es                0 100    10    y que q… TRUE     FALSE        prese…
    ##  6 10-08… es                0 100    10    y que q… TRUE     FALSE        elecc…
    ##  7 10-08… es                0 100    10    y que q… TRUE     FALSE        graci…
    ##  8 10-14… es                0  99.0   8.05 hemos c… TRUE     FALSE        favor 
    ##  9 10-16… es                0  90.8   9.06 esas pr… TRUE     FALSE        mejora
    ## 10 10-16… es                0  90.8   9.06 esas pr… TRUE     FALSE        graci…
    ## # ℹ 2,412 more rows
    ## # ℹ 4 more variables: Stems <chr>, `#` <dbl>, PFA <dbl>, Categoría <chr>
…
    ## Loading required package: RColorBrewer

``` r
library(RColorBrewer)
library(wordcloud2)

#Ungrouping to create wordclouds
merged_data3 <- merged_data %>% 
  ungroup()
merged_data3
```

    ## # A tibble: 2,422 × 13
    ##    path   language speaker_id   PRR length sentence keywords non_keywords tokens
    ##    <chr>  <chr>         <dbl> <dbl>  <dbl> <chr>    <lgl>    <lgl>        <chr> 
    ##  1 10-00… es              370 100     6.06 con una… TRUE     FALSE        confi…
    ##  2 10-00… es              370 100     9.02 es en u… TRUE     FALSE        parti…
    ##  3 10-00… es                6 100     5.86 del gob… TRUE     FALSE        ataque
    ##  4 10-00… es                6 100     9.74 la rece… TRUE     FALSE        ataque
    ##  5 10-00… es              290 100     6.71 porque … TRUE     FALSE        respe…
    ##  6 10-00… es              290 100     4.13 decir q… TRUE     FALSE        ataque
    ##  7 10-00… es              290  98.8   6.17 derecho… TRUE     FALSE        elecc…
    ##  8 10-00… es              290 100    10.2  aspecto… TRUE     FALSE        graci…
    ##  9 10-00… es                6  94.3   5.04 disposi… TRUE     FALSE        bueno 
    ## 10 10-00… es                6 100     5.2  del tem… TRUE     FALSE        tema  
    ## # ℹ 2,412 more rows
    ## # ℹ 4 more variables: Stems <chr>, `#` <dbl>, PFA <dbl>, Categoría <chr>
…
fear_words <- merged_data3 %>% 
  filter(Categoría=="Miedo") %>% 
  group_by(Stems) %>% 
  mutate(Freq = n()) %>% 
  ungroup() %>% 
  select(Stems, Freq, Categoría) %>% 
  distinct(Stems, .keep_all = TRUE)

anger_words
```

    ## # A tibble: 46 × 3
    ##    Stems     Freq Categoría
    ##    <chr>    <int> <chr>    
    ##  1 ataqu        6 Enojo    
    ##  2 exces       22 Enojo    
    ##  3 contrari    20 Enojo    
    ##  4 man          7 Enojo    
    ##  5 discrep      4 Enojo    
    ##  6 atac        14 Enojo    
    ##  7 provoc       4 Enojo    
    ##  8 acomet       2 Enojo    
    ##  9 batall       1 Enojo    
    ## 10 ret          4 Enojo    
    ## # ℹ 36 more rows
…
Finding general sentiment for each speaker:

``` r
by_speaker <- merged_data3 %>% 
  count(speaker_id, Categoría, sort=TRUE) %>%
  filter(n == max(n), .by=speaker_id)
by_speaker
```

    ## # A tibble: 128 × 3
    ##    speaker_id Categoría     n
    ##         <dbl> <chr>     <int>
    ##  1        290 Alegría     240
    ##  2        353 Alegría      85
    ##  3        189 Alegría      81
    ##  4        355 Alegría      62
    ##  5        380 Alegría      62
    ##  6        128 Alegría      52
    ##  7        275 Alegría      51
    ##  8        463 Alegría      50
    ##  9        462 Alegría      46
    ## 10        530 Alegría      45
    ## # ℹ 118 more rows
…
