…
view(merged_data)
```

Grouping by sentence/utterance:

``` r
merged_data2 <- merged_data %>% 
  arrange(speaker_id, group_by=TRUE)
merged_data2
```

    ## # A tibble: 537 × 10
    ## # Groups:   sentence, speaker_id [433]
    ##    language speaker_id   PRR length sentence         keywords tokens   `#`   PFA
    ##    <chr>         <dbl> <dbl>  <dbl> <chr>            <lgl>    <chr>  <dbl> <dbl>
    ##  1 es                0  99.2   9.21 y del plan de e… TRUE     lograr   498 0.663
    ##  2 es                0 100    10.2  de querer o no … TRUE     querer   553 0.63 
    ##  3 es                0 100    10.2  de querer o no … TRUE     querer   553 0.63 
    ##  4 es                0 100    10.2  de querer o no … TRUE     llevar  1593 0.132
    ##  5 es                0 100    10.2  de querer o no … TRUE     bien     142 0.798
    ##  6 es                0  99.0   8.05 hemos contribui… TRUE     favor    389 0.33 
    ##  7 es                0 100     9.02 se pueda cumpli… TRUE     cumpl…   264 0.496
    ##  8 es                6  92.7   7.96 pero tal y como… TRUE     agrad…    43 0.764
    ##  9 es                6 100     8.98 recentralizació… TRUE     ataque   731 0.899
    ## 10 es                6 100    10.1  de presencia ve… TRUE     éxito    367 0.864
    ## # ℹ 527 more rows
    ## # ℹ 1 more variable: Categoría <chr>
…
